^C:\USERS\THORIQ NAZAR\DOCUMENTS\REPOS\ADS 103 ASSESSMENT 4\X64\DEBUG\SOURCE.OBJ|C:\USERS\THORIQ NAZAR\DOCUMENTS\REPOS\ADS 103 ASSESSMENT 4\X64\DEBUG\TICTACTOE.OBJ
C:\USERS\THORIQ NAZAR\DOCUMENTS\REPOS\ADS 103 ASSESSMENT 4\X64\DEBUG\ADS 103 ASSESSMENT 4.EXE
C:\USERS\THORIQ NAZAR\DOCUMENTS\REPOS\ADS 103 ASSESSMENT 4\X64\DEBUG\ADS 103 ASSESSMENT 4.ILK
C:\USERS\THORIQ NAZAR\DOCUMENTS\REPOS\ADS 103 ASSESSMENT 4\X64\DEBUG\ADS 103 ASSESSMENT 4.PDB
